DSD/lab/labs/lab2/warningSystem/simulation/qsim/warningAlaram.msim.vcd
$comment
	File created using the following command:
		vcd file warningAlaram.msim.vcd -direction
$end
$date
	Sat Dec 06 01:28:21 2025
$end
$version
	ModelSim Version 10.1d
$end
$timescale
	1ps
$end
$scope module warningAlaram_vlg_vec_tst $end
$var reg 1 ! door $end
$var reg 1 " ignition $end
$var reg 1 # sbelt $end
$var wire 1 $ warning $end
$var wire 1 % sampler $end
$scope module i1 $end
$var wire 1 & gnd $end
$var wire 1 ' vcc $end
$var wire 1 ( unknown $end
$var tri1 1 ) devclrn $end
$var tri1 1 * devpor $end
$var tri1 1 + devoe $end
$var wire 1 , warning~output_o $end
$var wire 1 - ignition~input_o $end
$var wire 1 . door~input_o $end
$var wire 1 / sbelt~input_o $end
$var wire 1 0 U2|x~0_combout $end
$upscope $end
$upscope $end
$enddefinitions $end
#0
$dumpvars
0!
0"
0#
0$
x%
0&
1'
x(
1)
1*
1+
0,
0-
0.
0/
00
$end
#31250
1#
1/
0%
#62500
1!
0#
1.
0/
1%
#93750
1#
1/
0%
#125000
1"
0!
0#
1-
0.
0/
1%
10
1,
1$
#156250
1#
1/
0%
00
0,
0$
#187500
1!
0#
1.
0/
1%
10
1,
1$
#218750
1#
1/
0%
#250000
0"
0!
0#
0-
0.
0/
1%
00
0,
0$
#281250
1#
1/
0%
#312500
1!
0#
1.
0/
1%
#343750
1#
1/
0%
#375000
1"
0!
0#
1-
0.
0/
1%
10
1,
1$
#406250
1#
1/
0%
00
0,
0$
#437500
1!
0#
1.
0/
1%
10
1,
1$
#468750
1#
1/
0%
#500000
0"
0!
0#
0-
0.
0/
1%
00
0,
0$
#531250
1#
1/
0%
#562500
1!
0#
1.
0/
1%
#593750
1#
1/
0%
#625000
1"
0!
0#
1-
0.
0/
1%
10
1,
1$
#656250
1#
1/
0%
00
0,
0$
#687500
1!
0#
1.
0/
1%
10
1,
1$
#718750
1#
1/
0%
#750000
0"
0!
0#
0-
0.
0/
1%
00
0,
0$
#781250
1#
1/
0%
#812500
1!
0#
1.
0/
1%
#843750
1#
1/
0%
#875000
1"
0!
0#
1-
0.
0/
1%
10
1,
1$
#906250
1#
1/
0%
00
0,
0$
#937500
1!
0#
1.
0/
1%
10
1,
1$
#968750
1#
1/
0%
