DSD/lab/labs/lab2/fourToOneMux/simulation/qsim/fourToOneMux.msim.vcd
$comment
	File created using the following command:
		vcd file fourToOneMux.msim.vcd -direction
$end
$date
	Sat Dec 06 02:25:19 2025
$end
$version
	ModelSim Version 10.1d
$end
$timescale
	1ps
$end
$scope module fourToOneMux_vlg_vec_tst $end
$var reg 1 ! a $end
$var reg 1 " b $end
$var reg 1 # c $end
$var reg 1 $ d $end
$var reg 2 % s [1:0] $end
$var wire 1 & f $end
$var wire 1 ' sampler $end
$scope module i1 $end
$var wire 1 ( gnd $end
$var wire 1 ) vcc $end
$var wire 1 * unknown $end
$var tri1 1 + devclrn $end
$var tri1 1 , devpor $end
$var tri1 1 - devoe $end
$var wire 1 . f~output_o $end
$var wire 1 / s[1]~input_o $end
$var wire 1 0 c~input_o $end
$var wire 1 1 d~input_o $end
$var wire 1 2 a~input_o $end
$var wire 1 3 s[0]~input_o $end
$var wire 1 4 b~input_o $end
$var wire 1 5 Mux0~0_combout $end
$var wire 1 6 Mux0~1_combout $end
$upscope $end
$upscope $end
$enddefinitions $end
#0
$dumpvars
0!
0"
0#
0$
b0 %
0&
x'
0(
1)
x*
1+
1,
1-
0.
0/
00
01
02
03
04
05
06
$end
#50000
b10 %
1/
0'
#100000
1!
b11 %
b1 %
12
13
0/
1'
#150000
b11 %
1/
0'
15
#200000
1"
0!
b10 %
b0 %
14
02
03
0/
1'
05
16
1.
1&
06
0.
0&
#250000
b10 %
1/
0'
#300000
1!
b11 %
b1 %
12
13
0/
1'
15
16
1.
1&
#350000
b11 %
1/
0'
06
0.
0&
#400000
1#
0"
0!
b10 %
b0 %
10
04
02
03
0/
1'
05
16
1.
1&
06
0.
0&
#450000
b10 %
1/
0'
16
1.
1&
#500000
1!
b11 %
b1 %
12
13
0/
1'
06
0.
0&
#550000
b11 %
1/
0'
15
16
1.
1&
06
0.
0&
#600000
1"
0!
b10 %
b0 %
14
02
03
0/
1'
05
16
1.
1&
06
0.
0&
#650000
b10 %
1/
0'
16
1.
1&
#700000
1!
b11 %
b1 %
12
13
0/
1'
15
06
0.
0&
16
1.
1&
#750000
b11 %
1/
0'
06
0.
0&
#800000
0#
0"
0!
b10 %
b0 %
00
04
02
03
0/
1'
05
16
1.
1&
06
0.
0&
#850000
b10 %
1/
0'
#900000
1!
b11 %
b1 %
12
13
0/
1'
#950000
b11 %
1/
0'
15
